…
#> # A tibble: 2,573 × 32
#>    odata.metadata odata…¹ value…² value…³ value…⁴
#>    <chr>          <chr>     <int>   <int>   <int>
#>  1 https://oda.f… 2573         40       6      NA
#>  2 https://oda.f… 2573         80      11      NA
#>  3 https://oda.f… 2573        102      11      NA
#>  4 https://oda.f… 2573        105       6      NA
#>  5 https://oda.f… 2573        168       6      NA
#>  6 https://oda.f… 2573        259       6      NA
#>  7 https://oda.f… 2573        260       6      NA
#>  8 https://oda.f… 2573        261       6      NA
#>  9 https://oda.f… 2573        262       6      NA
#> 10 https://oda.f… 2573        263       6      NA
#> # … with 2,563 more rows, 27 more variables:
#> #   value.statusid <int>, value.titel <chr>,
#> #   value.titelkort <chr>,
#> #   value.offentlighedskode <chr>,
#> #   value.nummer <chr>,
#> #   value.nummerprefix <chr>,
#> #   value.nummernumerisk <chr>, …
…
